<?xml version="1.0" encoding="utf-8"?>
<!-- Generator: Adobe Illustrator 16.0.0, SVG Export Plug-In . SVG Version: 6.00 Build 0)  -->
<!DOCTYPE svg PUBLIC "-//W3C//DTD SVG 1.1//EN" "http://www.w3.org/Graphics/SVG/1.1/DTD/svg11.dtd">
<svg version="1.1" id="Layer_1" xmlns="http://www.w3.org/2000/svg" xmlns:xlink="http://www.w3.org/1999/xlink" x="0px" y="0px"
	 width="60px" height="60px" viewBox="0 0 60 60" enable-background="new 0 0 60 60" xml:space="preserve">
<g id="Layer_1_1_" display="none">
	<path display="inline" fill="#FFFFFF" d="M59.432,56.738L43.939,41.492c4.057-4.408,6.547-10.236,6.547-16.65
		C50.486,11.122,39.188,0,25.244,0C11.302,0,0.001,11.122,0.001,24.842c0,13.721,11.301,24.84,25.243,24.84
		c6.023,0,11.55-2.082,15.888-5.548l15.552,15.304c0.762,0.748,1.988,0.748,2.748,0C60.188,58.693,60.188,57.482,59.432,56.738z
		 M25.244,45.861c-11.796,0-21.359-9.41-21.359-21.02c0-11.61,9.563-21.019,21.359-21.019c11.797,0,21.361,9.409,21.361,21.019
		C46.605,36.451,37.041,45.861,25.244,45.861z"/>
</g>
<g id="Layer_3" display="none">
	<g id="Layer_3_1_" display="inline">
		<g>
			<path fill="#FFFFFF" d="M45.082,0.424L1.018,43.875L0,59.576l15.605-0.669L60,15.133L45.082,0.424z M56.559,15.133l-3.966,3.911
				L41.116,7.727l3.966-3.91L56.559,15.133z M50.191,21.409L17.801,53.35L6.325,42.034l32.392-31.94L50.191,21.409z M2.585,57.046
				l0.784-12.098l0.557-0.55l11.476,11.315l-0.828,0.817L2.585,57.046z"/>
			<rect x="27.064" y="55.982" fill="#FFFFFF" width="32.236" height="3.348"/>
		</g>
	</g>
</g>
<g id="Layer_2" display="none">
	<path display="inline" d="M46.344,105.783c-0.389-0.393-1.021-0.395-1.414-0.004c-0.104,0.104-0.176,0.227-0.225,0.354
		c-0.832,1.735-1.748,2.715-2.904,3.293c-1.297,0.641-2.785,1.085-5.186,1.085c-0.131,0-0.26,0.025-0.383,0.076
		c-0.244,0.103-0.438,0.297-0.541,0.541c-0.102,0.244-0.102,0.521,0,0.765c0.051,0.123,0.125,0.233,0.217,0.325l3.244,3.243
		l-4.537,6.05l6.049-4.536l3.242,3.241c0.092,0.095,0.203,0.166,0.326,0.218c0.123,0.051,0.252,0.077,0.383,0.077
		c0.129,0,0.26-0.026,0.381-0.077c0.246-0.103,0.441-0.295,0.541-0.541c0.053-0.121,0.078-0.252,0.078-0.382
		c0-2.399,0.443-3.889,1.082-5.166c0.578-1.155,1.557-2.071,3.293-2.903c0.129-0.049,0.252-0.121,0.355-0.226
		c0.389-0.393,0.387-1.024-0.005-1.414L46.344,105.783z"/>
	<path display="inline" d="M3.5,107v7.236C3.5,117.43,5.963,120,9,120c3.038,0,5.5-2.602,5.5-5.792V107H3.5z"/>
</g>
<g id="Layer_8">
	<polygon fill="#FFFFFF" points="53.619,27.372 51.798,29.011 31.298,5.027 31.298,60 28.818,60 28.818,4.975 8.245,28.43 
		6.381,26.794 29.881,0 	"/>
</g>
<g id="Layer_7" display="none">
	<path display="inline" fill="#777777" d="M15.206,33.877L7.144,50.201c-0.675,1.837,0.792,3.484,2.63,2.632l16.313-8.069
		c0.703-0.139,1.385-0.41,1.929-0.953l28.979-28.998c1.455-1.456,1.455-3.815,0-5.273l-6.586-6.591
		c-1.456-1.453-3.813-1.453-5.267,0L16.16,31.945C15.614,32.491,15.345,33.176,15.206,33.877z M46.455,6.905
		c0.727-0.729,1.906-0.729,2.637,0l3.949,3.954c0.729,0.729,0.729,1.908,0,2.637l-3.949,3.952l-6.494-6.684L46.455,6.905z
		 M39.825,13.542l6.63,6.544L25.38,41.173c-2.468-2.473-5.885-5.89-6.583-6.589L39.825,13.542z M22.099,43.162l-10.071,6.102
		c-0.919,0.426-1.744-0.457-1.317-1.316l6.099-10.081L22.099,43.162z M56.25,22.5v30c0,2.061-2.037,3.773-4.092,3.773H7.451
		c-2.055,0-3.724-1.67-3.724-3.729V7.81c0-2.061,1.716-4.06,3.773-4.06h30V0h-30C3.384,0,0,3.691,0,7.81v44.735
		C0,56.662,3.337,60,7.451,60h44.708C56.273,60,60,56.618,60,52.5v-30H56.25z"/>
</g>
<g id="Layer_5" display="none">
	<g display="inline">
		<g>
			<path fill="#969696" d="M58.5,12H54v-1.5C54,9.676,53.324,9,52.5,9h-3C48.676,9,48,9.676,48,10.5V12h-3l-6-6H21l-6,6H1.5
				C0.676,12,0,12.676,0,13.5v39C0,53.326,0.676,54,1.5,54h57c0.824,0,1.5-0.674,1.5-1.5v-39C60,12.676,59.324,12,58.5,12z M30,48
				c-8.287,0-15-6.713-15-15c0-8.285,6.713-15,15-15c8.285,0,15,6.715,15,15C45,41.287,38.285,48,30,48z M30,24
				c-4.971,0-9,4.027-9,9c0,4.971,4.029,9,9,9c4.969,0,9-4.029,9-9C39,28.027,34.969,24,30,24z"/>
		</g>
	</g>
</g>
<g id="Layer_6" display="none">
	<polygon display="inline" fill="#9B9B9B" points="55.275,11.885 60,16.35 29.999,48.115 0,16.35 4.725,11.885 29.999,38.646 	"/>
</g>
<g id="Layer_4" display="none">
	<path display="inline" fill="#353D55" d="M53.998,30v-8.603H45L30,7.059L0,35.734h5.999v17.207h18V38.604h11.998v14.338h18.002
		V35.734H60L53.998,30z"/>
</g>
</svg>
